<?xml version="1.0" encoding="utf-8"?>
<!-- Generator: Adobe Illustrator 22.1.0, SVG Export Plug-In . SVG Version: 6.00 Build 0)  -->
<svg version="1.1" id="Layer_1" xmlns="http://www.w3.org/2000/svg" xmlns:xlink="http://www.w3.org/1999/xlink" x="0px" y="0px"
	 viewBox="0 0 238.4 313.5" style="enable-background:new 0 0 238.4 313.5;" xml:space="preserve">
<style type="text/css">
	.st0{fill:#74D2E2;}
	.st1{fill:#242424;}
</style>
<g>
	<path class="st0" d="M8.7,169.1C26,157.3,44.9,148.2,65,142.4c-2.5-1.4-4.9-2.8-7.4-4.2c1.7,7.6-3.9,16.2-6.5,23.1
		c-2.9,7.9-5.3,16-7.2,24.3c-1.4,6.2,5.5,9.5,10,5.8c20.1-16.3,42-30,65.3-41.3c-3-1.7-6-3.5-9-5.2c-0.5,12.1-9.7,21.8-9.3,34.2
		c0.1,4.3,5.1,7.8,9,5.2c21.7-14.1,43.5-28.2,67.2-38.9c-2.7-2.7-5.5-5.5-8.2-8.2c-4.9,8.2-10.3,16-16.1,23.6
		c-3.6,4.7,3.5,11.7,8.2,8.2c9.3-7,18.6-14,27.8-21c-3-1.7-6-3.5-9-5.2c0.7,6.5,1,13,0.9,19.5c-0.1,4.8,5.1,7.1,9,5.2
		c2.3-1.1,4.6-2.2,6.8-3.4c1.9-0.9,5.4-1.9,6.8-3.4c2.8-0.7,2.4-1.9-1.3-3.4c0.1,0.9,0.3,1.7,0.8,2.5c0.8,1.5,1.9,2.6,3.4,3.3
		c3.6,1.7,7.9,0.2,11.6-0.6c4.8-1,9.5-1.9,14.3-2.9c7.6-1.5,4.4-13.1-3.2-11.6c-3.3,0.7-6.6,1.3-9.8,2c-2.1,0.4-7,2.4-8.9,1.8
		c1.2,0.9,2.4,1.8,3.6,2.8c-1.4-2.2-1-4.4-3.5-6.1c-2.3-1.5-4.9-1.4-7.4-0.7c-6.6,2-13,6.2-19.1,9.3c3,1.7,6,3.5,9,5.2
		c0.1-6.5-0.2-13-0.9-19.5c-0.4-3.9-5-8.2-9-5.2c-9.3,7-18.6,14-27.8,21c2.7,2.7,5.5,5.5,8.2,8.2c5.8-7.6,11.2-15.4,16.1-23.6
		c3.4-5.6-3.1-10.5-8.2-8.2c-23.6,10.7-45.5,24.8-67.2,38.9c3,1.7,6,3.5,9,5.2c-0.4-12,8.8-22.1,9.3-34.2c0.2-4.9-5.2-7.1-9-5.2
		c-24.2,11.7-46.8,26.3-67.7,43.2c3.3,1.9,6.7,3.9,10,5.8c2.1-9.4,4.9-18.7,8.4-27.7c3.4-8.7,7.2-16.6,5.2-26.1
		c-0.7-3.1-4.4-5.1-7.4-4.2c-21.1,6.1-41.1,15.5-59.2,28C-3.6,163.1,2.4,173.5,8.7,169.1L8.7,169.1z"/>
</g>
<g>
	<g>
		<path class="st1" d="M37.1,18.9l4-4.4l-2.8,15.6h-4.9l0.7-15.6H82l0.7,15.6h-4.9L75,14.5l4,4.4H37.1z M58.9,68.5l12.3,1.3v3.5
			H44.9v-3.5l12.3-1.3H58.9z M54.1,41.7c0-9,0-18.2-0.3-27.2h8.4C62,23.4,62,32.5,62,41.7v4.4c0,9,0,18.2,0.3,27.2h-8.4
			c0.3-8.9,0.3-18,0.3-27.2V41.7z"/>
		<path class="st1" d="M93.9,16.2l-7.3-0.9v-3.1l13.2-4l1.2,0.7l-0.4,12.5v18.6l0.3,1.1v13.6c0,5.4,0.1,14.5,0.3,18.4h-7.6
			c0.2-4,0.3-13,0.3-18.4V16.2z M107.3,70.3v3.1H87.1v-3.1l9.7-1.8h1.8L107.3,70.3z M128,46.8v8.1c0,5.6,0.1,14.5,0.3,18.4h-7.6
			c0.2-4,0.3-12.8,0.3-18.4v-7.4c0-8.2-2.1-10.8-7.4-10.8c-4.4,0-8,1.6-13,6.1h-1.8v-4h4.5l-4,1.6c4.1-5.5,11.3-9.8,17.6-9.8
			C124.4,30.6,128,35.2,128,46.8z M125.6,68.5l8.8,1.8v3.1h-20.2v-3.1l9.7-1.8H125.6z"/>
		<path class="st1" d="M177.5,47.3c0,2-0.3,3.8-0.6,4.9h-32.4v-3.7h20.9c4.2,0,5.2-2,5.2-4.5c0-5-4.2-9.6-9.7-9.6
			c-5.6,0-12.1,4.7-12.1,17.3c0,11.2,5.6,17.1,14.4,17.1c5.6,0,9.1-2.5,12.3-6.2l2,1.6c-3.2,6.2-8.8,10.2-16.8,10.2
			c-11.8,0-19.4-8.2-19.4-21.5c0-13.4,9.1-22.4,20-22.4C170.3,30.6,177.5,36.7,177.5,47.3z"/>
		<path class="st1" d="M37.1,124.3l4-4.4l-2.8,15.6h-4.9l0.7-15.6H82l0.7,15.6h-4.9L75,119.9l4,4.4H37.1z M58.9,173.9l12.3,1.3v3.5
			H44.9v-3.5l12.3-1.3H58.9z M54.1,147.1c0-9,0-18.2-0.3-27.2h8.4c-0.3,8.9-0.3,18-0.3,27.2v4.4c0,9,0,18.2,0.3,27.2h-8.4
			c0.3-8.9,0.3-18,0.3-27.2V147.1z"/>
		<path class="st1" d="M124.8,152.7c0,2-0.3,3.8-0.6,4.9H91.7v-3.7h20.9c4.2,0,5.2-2,5.2-4.5c0-5-4.2-9.6-9.7-9.6
			c-5.6,0-12.1,4.7-12.1,17.3c0,11.2,5.6,17.1,14.4,17.1c5.6,0,9.1-2.5,12.3-6.2l2,1.6c-3.2,6.2-8.8,10.2-16.8,10.2
			c-11.8,0-19.4-8.2-19.4-21.5c0-13.4,9.1-22.4,20-22.4C117.6,135.9,124.8,142.1,124.8,152.7z"/>
		<path class="st1" d="M139.4,174.1l8.3,1.5v3.1H130v-3.1l7.6-1.5H139.4z M139.8,141.9l-9.1-1.5v-3.3H150v3.3l-8.3,1.5H139.8z
			 M132.2,178.7l18.4-22.7l3,2l-16.1,20.6H132.2z M141.5,137.1l12.4,17.8l16.7,23.8h-8.1l-13-18.7l-15.7-22.9H141.5z M171.7,137.1
			l-18.3,22.2l-2.9-2.3l15.6-19.9H171.7z M164.6,173.9l9.7,1.8v3.1h-21.2v-3.1l9.7-1.8H164.6z M164,141.8l-7.3-1.4v-3.3h16.5v3.3
			l-7.4,1.4H164z"/>
		<path class="st1" d="M195.3,175.5c1.9,0,3.7-0.8,6-2.5l2,2.4c-2.2,2.8-5.8,4.5-10.2,4.5c-6.1,0-9.8-3.2-9.8-9.9
			c0-2.1,0.1-4,0.1-7.4v-20.9H176v-3.8l10.9-1.4l-3.5,2.9l2.6-14.2h5.1l-0.7,15.4V169C190.4,173.5,192.3,175.5,195.3,175.5z
			 M202.5,137.1v4.6h-15.6v-4.6H202.5z"/>
		<path class="st1" d="M81.5,275.4v4.8l-5.4,1.2l2.2-13h5.4l-0.4,12.7c-5.5,3-11.6,4.2-17.7,4.2c-17.7,0-29.7-12.8-29.7-30.7
			c0-17.6,12.5-30.7,29.6-30.7c4.7,0,11,0.8,16.9,4.2l0.4,12.7h-5.4l-2.2-13l5.4,1.2v5.4c-5-4.7-9.9-6.1-14.1-6.1
			c-11.9,0-21.4,9.2-21.4,26.3S53.6,281,65.8,281C70.8,281,76.5,279.5,81.5,275.4z"/>
		<path class="st1" d="M102.7,219.1l1.2,0.7l-0.4,12.5v33.4c0,6.1,0.1,12.3,0.3,18.4h-7.6c0.2-6.1,0.3-12.3,0.3-18.4V227l-7.3-0.9
			v-3.1L102.7,219.1z M110.9,281v3.1H89.3V281l9.9-1.8h1.8L110.9,281z"/>
		<path class="st1" d="M128.4,268.5c0,7.8,2.3,10.5,7.1,10.5c4.5,0,9-2.2,13.4-6.6h1.8v4.5h-4.5l3.1-1.3c-5,6.8-11,9.6-16.7,9.6
			c-7,0-11.4-4.2-11.3-15.8l0.3-23.2l1.8,1.7l-8.2-1.8v-3.1l12.6-1.1l0.9,0.9l-0.4,12.3V268.5z M149.3,284.8l-1.2-10.3l0.3-28.3
			l1.8,1.7l-8.2-1.8v-3.1l12.5-1.1l0.9,0.9l-0.3,12.3v26.3l-2.1-2.1l8.2,1.8v3.1L149.3,284.8z"/>
		<path class="st1" d="M166.8,281l9.5-1.8l-2.9,4.8c0.2-4,0.3-13,0.3-18.4V227l-7.3-0.9v-3.1l13.2-4l1.2,0.7l-0.4,12.5v16.9l0.3,1.1
			v26.9l-0.9,7.8l-13-0.9V281z M203.2,263.6c0-11.3-4.7-17.5-11.3-17.5c-3.2,0-7.5,1.4-13.9,7.8l-0.8-1.6
			c5.1-7.7,10.8-11.1,16.8-11.1c9.3,0,16.7,8,16.7,21.5s-7.7,22.4-18,22.4c-5.4,0-10.8-2.4-15.5-11.5l0.8-1.4
			c4.6,5.8,9.3,8.1,13.4,8.1C197.7,280.4,203.2,275,203.2,263.6z"/>
		<path class="st1" d="M221.7,279.1c0-3.4,2.7-6.2,6.1-6.2s6.1,2.8,6.1,6.2c0,3.3-2.7,6.1-6.1,6.1S221.7,282.4,221.7,279.1z"/>
	</g>
</g>
</svg>
