<?xml version="1.0" encoding="utf-8"?>
<!-- Generator: Adobe Illustrator 22.1.0, SVG Export Plug-In . SVG Version: 6.00 Build 0)  -->
<svg version="1.1" id="Layer_1" xmlns="http://www.w3.org/2000/svg" xmlns:xlink="http://www.w3.org/1999/xlink" x="0px" y="0px"
	 viewBox="0 0 120 114.8" style="enable-background:new 0 0 120 114.8;" xml:space="preserve">
<style type="text/css">
	.st0{fill:#DD6D6E;}
</style>
<g>
	<path class="st0" d="M44,21.8c-9.8,4.8-19,11.6-24.1,21.3S15,65.7,22.4,73.7C26.8,78.4,33,81,39.1,83c5.5,1.8,11.2,3.3,16.9,4.5
		c5.9,1.2,12.1,2.1,18,0.8c5.6-1.3,10.5-4.5,15.1-8c6.5-5,12.8-11.1,14.4-19.1c1.9-9.5-3.4-19-10.2-25.9c-11.6-11.9-28-19-44.7-19.2
		c-2.2,0-4.5,0.1-6.6,1c-5,2.2-7,8.2-7.8,13.6c-2.7,17.7,1.5,36,9.5,51.9c3.4,6.8,8.3,13.8,15.6,15.7c7.1,1.8,14.5-1.8,20.4-6.3
		c7.5-5.8,14-13.9,15-23.4c0.4-3.3,0-7-2.2-9.6c-1.4-1.6-3.4-2.7-5.3-3.5c-8.9-3.9-18.7-4.8-28.4-5.1C52,50,44.5,50.3,39.3,54.7
		S33.4,69.1,39.7,72c3.6,1.7,7.9,0.4,11.4-1.5c9.2-4.8,16.5-13.2,19.9-23c-3.8,5.4-6.8,11.3-8.9,17.6c-0.4,1.1-0.7,2.4,0,3.3
		c0.8,1.1,2.4,0.9,3.7,0.7c4.8-0.9,10.9-3.8,9.8-8.5c-0.3-1.4-1.3-2.5-2.2-3.5c-6.3-6.6-15.7-10.1-24.8-9.4c4.4-2.1,8-5.7,10.1-10.1
		c-1.4-0.3-2.9,0.4-3.5,1.7"/>
	<g>
		<path class="st0" d="M35.7,7.6C12.9,19.6-6.4,42.9,2,70.2c7.7,25,42.5,35.7,66,35.1c26.2-0.6,55.2-25.8,51.7-53.3
			C116.4,26.8,91.1,8,67.8,2.1C39.3-5.1,19.1,6,17.2,36.4c-1.6,24.6,7.5,63,31.7,75c24.5,12.1,53.7-10.5,60.7-34
			c9.6-32.2-22.6-42.3-47.9-43.5C47.5,33.2,31,35.6,22.9,49.1c-6,9.9-5.4,24,2.6,32.6c22.4,24.1,53.1-9.9,61.3-29.8
			c7.4-17.9-20.4-27.5-30-12.6c-5.6,8.7-11.2,18.6-11.1,29.1c0,5.5,3,11.7,8.1,14.2c15.1,7.4,37.7-2,38.1-20.4
			C92.3,41,66.2,31,48.7,31.2c2.8,10.2,5.5,20.4,8.3,30.6c6.9-4.4,11.6-9.1,15.9-16C79,36.1,71.3,19.4,58.7,21
			c-6.4,0.8-10.4,2.1-15.1,6.5c-15.4,14.5,7.8,37.7,23.2,23.2c0.5-0.5,1-0.9,1.5-1.4c-3.9,1.6-7.7,3.2-11.6,4.8
			c0.7-0.1,1.4-0.2,2-0.3c-4.7-8.2-9.4-16.5-14.2-24.7c-1.4,1.4-2.8,2.8-4.2,4.2C27,41.9,31.9,64.1,48.7,64c2.3,0,9.8,2.6,10.2-0.3
			c1.6-3.9,3.2-7.7,4.8-11.6c2.2,0.7,4.5,1.4,6.7,2.1c2.7,4.7,5.4,9.4,8.1,14.2c0-3.6,4.8-9.8,6.6-12.6c-10-4.2-20-8.4-30-12.6
			c-1.9,4.7-6.5,7-8.5,10.9c-7.7,3-5.3,7.2,7,12.5c1.7,0,3.5,0,5.2,0c7.4,1.9,29-0.5,12.9,10.5c-13.6,9.3-18-10.7-20.4-21.5
			C50,49.1,50.9,42.8,50,36.4c2.3-5.8,1.9-7.1-1.4-4c2.6-0.1,5.2,0.2,7.7,0.8c10.1,1.9,20.9,7.3,27.1,15.7
			c9.4,12.7-7.3,23.3-19.3,23.1c-8-0.1-28.3-4.3-30.8-12.9C30.1,48,44.5,40,52.2,36C70.9,26.1,54.4-2.3,35.7,7.6L35.7,7.6z"/>
	</g>
</g>
</svg>
