<?xml version="1.0" encoding="utf-8"?>
<!-- Generator: Adobe Illustrator 22.1.0, SVG Export Plug-In . SVG Version: 6.00 Build 0)  -->
<svg version="1.1" id="Layer_1" xmlns="http://www.w3.org/2000/svg" xmlns:xlink="http://www.w3.org/1999/xlink" x="0px" y="0px"
	 viewBox="0 0 194 199.4" style="enable-background:new 0 0 194 199.4;" xml:space="preserve">
<style type="text/css">
	.st0{fill:#242424;}
</style>
<g>
	<rect y="88.7" class="st0" width="194" height="22"/>
	<rect y="149.7" class="st0" width="194" height="22"/>
	<rect y="27.7" class="st0" width="194" height="22"/>
</g>
</svg>
